Covid-19-Geographical Analysis
…
library(lubridate)

## 
## Attaching package: 'lubridate'

## The following objects are masked from 'package:base':
## 
##     date, intersect, setdiff, union

# Reading File 
raw_data<-read_xlsx("COVID-19-geographic-disbtribution-worldwide.xlsx")
raw_data

## # A tibble: 61,900 x 12
##    dateRep               day month  year cases deaths countriesAndTerrito geoId
##    <dttm>              <dbl> <dbl> <dbl> <dbl>  <dbl> <chr>                <chr>
##  1 2020-12-14 00:00:00    14    12  2020   746      6 Afghanistan          AF   
##  2 2020-12-13 00:00:00    13    12  2020   298      9 Afghanistan          AF   
##  3 2020-12-12 00:00:00    12    12  2020   113     11 Afghanistan          AF   
##  4 2020-12-11 00:00:00    11    12  2020    63     10 Afghanistan          AF   
##  5 2020-12-10 00:00:00    10    12  2020   202     16 Afghanistan          AF   
##  6 2020-12-09 00:00:00     9    12  2020   135     13 Afghanistan          AF   
##  7 2020-12-08 00:00:00     8    12  2020   200      6 Afghanistan          AF   
##  8 2020-12-07 00:00:00     7    12  2020   210     26 Afghanistan          AF   
##  9 2020-12-06 00:00:00     6    12  2020   234     10 Afghanistan          AF   
## 10 2020-12-05 00:00:00     5    12  2020   235     18 Afghanistan          AF   
## #  with 61,890 more rows, and 4 more variables: countryterritoryCode <chr>,
## #   popData2019 <dbl>, continentExp <chr>,
## #   Cumulative_number_for_14_days_of_COVID-19_cases_per_100000 <dbl>
…
raw_data<-na.omit(raw_data)
raw_data

## # A tibble: 59,021 x 12
##    dateRep               day month  year cases deaths countriesAndTerrito geoId
##    <dttm>              <dbl> <dbl> <dbl> <dbl>  <dbl> <chr>                <chr>
##  1 2020-12-14 00:00:00    14    12  2020   746      6 Afghanistan          AF   
##  2 2020-12-13 00:00:00    13    12  2020   298      9 Afghanistan          AF   
##  3 2020-12-12 00:00:00    12    12  2020   113     11 Afghanistan          AF   
##  4 2020-12-11 00:00:00    11    12  2020    63     10 Afghanistan          AF   
##  5 2020-12-10 00:00:00    10    12  2020   202     16 Afghanistan          AF   
##  6 2020-12-09 00:00:00     9    12  2020   135     13 Afghanistan          AF   
##  7 2020-12-08 00:00:00     8    12  2020   200      6 Afghanistan          AF   
##  8 2020-12-07 00:00:00     7    12  2020   210     26 Afghanistan          AF   
##  9 2020-12-06 00:00:00     6    12  2020   234     10 Afghanistan          AF   
## 10 2020-12-05 00:00:00     5    12  2020   235     18 Afghanistan          AF   
## #  with 59,011 more rows, and 4 more variables: countryterritoryCode <chr>,
## #   popData2019 <dbl>, continentExp <chr>,
## #   Cumulative_number_for_14_days_of_COVID-19_cases_per_100000 <dbl>

raw_data$dateRep<- as.Date(raw_data$dateRep,format= "%m/%d/%y")
raw_data[order(raw_data$dateRep),]

## # A tibble: 59,021 x 12
##    dateRep      day month  year cases deaths countriesAndTerritories geoId
##    <date>     <dbl> <dbl> <dbl> <dbl>  <dbl> <chr>                   <chr>
##  1 2020-01-13    13     1  2020     0      0 Afghanistan             AF   
##  2 2020-01-13    13     1  2020     0      0 Algeria                 DZ   
##  3 2020-01-13    13     1  2020     0      0 Armenia                 AM   
##  4 2020-01-13    13     1  2020     0      0 Australia               AU   
##  5 2020-01-13    13     1  2020     0      0 Austria                 AT   
##  6 2020-01-13    13     1  2020     0      0 Azerbaijan              AZ   
##  7 2020-01-13    13     1  2020     0      0 Bahrain                 BH   
##  8 2020-01-13    13     1  2020     0      0 Belarus                 BY   
##  9 2020-01-13    13     1  2020     0      0 Belgium                 BE   
## 10 2020-01-13    13     1  2020     0      0 Brazil                  BR   
## #  with 59,011 more rows, and 4 more variables: countryterritoryCode <chr>,
## #   popData2019 <dbl>, continentExp <chr>,
## #   Cumulative_number_for_14_days_of_COVID-19_cases_per_100000 <dbl>
…
rise_in_cases<-raw_data %>% group_by(continentExp)
rise_in_cases%>%
  mutate(Date=dateRep,cases=cases)

## # A tibble: 59,021 x 13
## # Groups:   continentExp [5]
##    dateRep      day month  year cases deaths countriesAndTerritories geoId
##    <date>     <dbl> <dbl> <dbl> <dbl>  <dbl> <chr>                   <chr>
##  1 2020-12-14    14    12  2020   746      6 Afghanistan             AF   
##  2 2020-12-13    13    12  2020   298      9 Afghanistan             AF   
##  3 2020-12-12    12    12  2020   113     11 Afghanistan             AF   
##  4 2020-12-11    11    12  2020    63     10 Afghanistan             AF   
##  5 2020-12-10    10    12  2020   202     16 Afghanistan             AF   
##  6 2020-12-09     9    12  2020   135     13 Afghanistan             AF   
##  7 2020-12-08     8    12  2020   200      6 Afghanistan             AF   
##  8 2020-12-07     7    12  2020   210     26 Afghanistan             AF   
##  9 2020-12-06     6    12  2020   234     10 Afghanistan             AF   
## 10 2020-12-05     5    12  2020   235     18 Afghanistan             AF   
## #  with 59,011 more rows, and 5 more variables: countryterritoryCode <chr>,
## #   popData2019 <dbl>, continentExp <chr>,
## #   Cumulative_number_for_14_days_of_COVID-19_cases_per_100000 <dbl>,
## #   Date <date>
…
rise_in_cases<-rise_in_cases%>%group_by(continentExp)

df1<-group_split(rise_in_cases)

df1

## <list_of<
##   tbl_df<
##     dateRep     : date
##     continentExp: character
##     cases       : double
##   >
## >[5]>
## [[1]]
## # A tibble: 14,266 x 3
##    dateRep    continentExp cases
##    <date>     <chr>        <dbl>
##  1 2020-12-14 Africa         464
##  2 2020-12-13 Africa         517
##  3 2020-12-12 Africa         542
##  4 2020-12-11 Africa         565
##  5 2020-12-10 Africa         598
##  6 2020-12-09 Africa         591
##  7 2020-12-08 Africa         573
##  8 2020-12-07 Africa         750
##  9 2020-12-06 Africa         772
## 10 2020-12-05 Africa         803
## #  with 14,256 more rows
## 
## [[2]]
## # A tibble: 13,105 x 3
##    dateRep    continentExp cases
##    <date>     <chr>        <dbl>
##  1 2020-12-14 America          0
##  2 2020-12-13 America          0
##  3 2020-12-12 America          0
##  4 2020-12-11 America          0
##  5 2020-12-10 America          0
##  6 2020-12-09 America          1
##  7 2020-12-08 America          0
##  8 2020-12-07 America          2
##  9 2020-12-06 America          0
## 10 2020-12-05 America          1
## #  with 13,095 more rows
## 
## [[3]]
## # A tibble: 12,695 x 3
##    dateRep    continentExp cases
##    <date>     <chr>        <dbl>
##  1 2020-12-14 Asia           746
##  2 2020-12-13 Asia           298
##  3 2020-12-12 Asia           113
##  4 2020-12-11 Asia            63
##  5 2020-12-10 Asia           202
##  6 2020-12-09 Asia           135
##  7 2020-12-08 Asia           200
##  8 2020-12-07 Asia           210
##  9 2020-12-06 Asia           234
## 10 2020-12-05 Asia           235
## #  with 12,685 more rows
## 
## [[4]]
## # A tibble: 16,657 x 3
##    dateRep    continentExp cases
##    <date>     <chr>        <dbl>
##  1 2020-12-14 Europe         788
##  2 2020-12-13 Europe         879
##  3 2020-12-12 Europe         802
##  4 2020-12-11 Europe         873
##  5 2020-12-10 Europe         752
##  6 2020-12-09 Europe         753
##  7 2020-12-08 Europe         695
##  8 2020-12-07 Europe         840
##  9 2020-12-06 Europe         846
## 10 2020-12-05 Europe         801
## #  with 16,647 more rows
## 
## [[5]]
## # A tibble: 2,298 x 3
##    dateRep    continentExp cases
##    <date>     <chr>        <dbl>
##  1 2020-12-14 Oceania          6
##  2 2020-12-13 Oceania         13
##  3 2020-12-12 Oceania         12
##  4 2020-12-11 Oceania          7
##  5 2020-12-10 Oceania          6
##  6 2020-12-09 Oceania         15
##  7 2020-12-08 Oceania          7
##  8 2020-12-07 Oceania          9
##  9 2020-12-06 Oceania          7
## 10 2020-12-05 Oceania         10
## #  with 2,288 more rows

cases_africa<-df1[[1]]
cases_africa=subset(cases_africa,select=-c(continentExp))
cases_africa<- cases_africa%>% rename("Date"=dateRep,"Cases in Africa"=cases)
cases_africa

## # A tibble: 14,266 x 2
##    Date       `Cases in Africa`
##    <date>                 <dbl>
##  1 2020-12-14               464
##  2 2020-12-13               517
##  3 2020-12-12               542
##  4 2020-12-11               565
##  5 2020-12-10               598
##  6 2020-12-09               591
##  7 2020-12-08               573
##  8 2020-12-07               750
##  9 2020-12-06               772
## 10 2020-12-05               803
## #  with 14,256 more rows

cases_america<-df1[[2]]
cases_america=subset(cases_america,select=-c(continentExp))
cases_america<- cases_america%>% rename("Date"=dateRep,"Cases in America"=cases)
cases_america

## # A tibble: 13,105 x 2
##    Date       `Cases in America`
##    <date>                  <dbl>
##  1 2020-12-14                  0
##  2 2020-12-13                  0
##  3 2020-12-12                  0
##  4 2020-12-11                  0
##  5 2020-12-10                  0
##  6 2020-12-09                  1
##  7 2020-12-08                  0
##  8 2020-12-07                  2
##  9 2020-12-06                  0
## 10 2020-12-05                  1
## #  with 13,095 more rows

cases_asia<-df1[[3]]
cases_asia=subset(cases_asia,select=-c(continentExp))
cases_asia<- cases_asia%>% rename("Date"=dateRep,"Cases in Asia"=cases)
cases_asia

## # A tibble: 12,695 x 2
##    Date       `Cases in Asia`
##    <date>               <dbl>
##  1 2020-12-14             746
##  2 2020-12-13             298
##  3 2020-12-12             113
##  4 2020-12-11              63
##  5 2020-12-10             202
##  6 2020-12-09             135
##  7 2020-12-08             200
##  8 2020-12-07             210
##  9 2020-12-06             234
## 10 2020-12-05             235
## #  with 12,685 more rows

cases_europe<-df1[[4]]
cases_europe=subset(cases_europe,select=-c(continentExp))
cases_europe<- cases_europe%>% rename("Date"=dateRep,"Cases in Europe"=cases)
cases_europe

## # A tibble: 16,657 x 2
##    Date       `Cases in Europe`
##    <date>                 <dbl>
##  1 2020-12-14               788
##  2 2020-12-13               879
##  3 2020-12-12               802
##  4 2020-12-11               873
##  5 2020-12-10               752
##  6 2020-12-09               753
##  7 2020-12-08               695
##  8 2020-12-07               840
##  9 2020-12-06               846
## 10 2020-12-05               801
## #  with 16,647 more rows

cases_oceania<-df1[[5]]
cases_oceania=subset(cases_oceania,select=-c(continentExp))
cases_oceania<- cases_oceania%>% rename("Date"=dateRep,"Cases in Oceania"=cases)

cases_oceania

## # A tibble: 2,298 x 2
##    Date       `Cases in Oceania`
##    <date>                  <dbl>
##  1 2020-12-14                  6
##  2 2020-12-13                 13
##  3 2020-12-12                 12
##  4 2020-12-11                  7
##  5 2020-12-10                  6
##  6 2020-12-09                 15
##  7 2020-12-08                  7
##  8 2020-12-07                  9
##  9 2020-12-06                  7
## 10 2020-12-05                 10
## #  with 2,288 more rows
…
raw_data

## # A tibble: 59,021 x 12
##    dateRep      day month  year cases deaths countriesAndTerritories geoId
##    <date>     <dbl> <dbl> <dbl> <dbl>  <dbl> <chr>                   <chr>
##  1 2020-12-14    14    12  2020   746      6 Afghanistan             AF   
##  2 2020-12-13    13    12  2020   298      9 Afghanistan             AF   
##  3 2020-12-12    12    12  2020   113     11 Afghanistan             AF   
##  4 2020-12-11    11    12  2020    63     10 Afghanistan             AF   
##  5 2020-12-10    10    12  2020   202     16 Afghanistan             AF   
##  6 2020-12-09     9    12  2020   135     13 Afghanistan             AF   
##  7 2020-12-08     8    12  2020   200      6 Afghanistan             AF   
##  8 2020-12-07     7    12  2020   210     26 Afghanistan             AF   
##  9 2020-12-06     6    12  2020   234     10 Afghanistan             AF   
## 10 2020-12-05     5    12  2020   235     18 Afghanistan             AF   
## #  with 59,011 more rows, and 4 more variables: countryterritoryCode <chr>,
## #   popData2019 <dbl>, continentExp <chr>,
## #   Cumulative_number_for_14_days_of_COVID-19_cases_per_100000 <dbl>
…
